Creando paquetes de R
…
name:success-submissions
## Success submissions

<img src="index_files/figure-html/cran_success-1.png" title="A bar plot with packages submissions to CRAN on the x axis and on the vertical axis the number of packages. The bars are colored by if they are accepted or not. It is also split by new packages and updated packages. More new packages are not accepted on the first try than updates, but on resubmissions they are accepted." alt="A bar plot with packages submissions to CRAN on the x axis and on the vertical axis the number of packages. The bars are colored by if they are accepted or not. It is also split by new packages and updated packages. More new packages are not accepted on the first try than updates, but on resubmissions they are accepted." width="1080" style="display: block; margin: auto;" />

.bottom[.center[High approval rates!!]]

???

Bioconductor & rOpenSci 50%, some submissions are abandoned or do not fit the project.
Different problems faced by new packages and older ones. 
More in depth review requires 1 month for each reviewer. 

```
## # A tibble: 53 × 7
##    submission_n new    Accepted     n  perc suspended perc_suspended
##    <fct>        <chr>  <lgl>    <int> <dbl>     <dbl>          <dbl>
##  1 1            New    FALSE      699 17.4        699          30.7 
##  2 1            New    TRUE      3317 82.6          0           0   
##  3 1            Update FALSE      723 13.5        723          31.8 
##  4 1            Update TRUE      4623 86.5          0           0   
##  5 2            New    FALSE      158 23.2        158           6.94
##  6 2            New    TRUE       522 76.8          0           0   
##  7 2            Update FALSE      298  8.37       298          13.1 
##  8 2            Update TRUE      3264 91.6          0           0   
##  9 3            New    FALSE       51 22.4         51           2.24
## 10 3            New    TRUE       177 77.6          0           0   
## # … with 43 more rows
```
…
